…
horror_movies <- horror_movies_raw %>%
  arrange(desc(review_rating)) %>%
  extract(title, "year", "\\((\\d\\d\\d\\d)\\)$", remove = FALSE, convert = TRUE) %>%
  mutate(budget = parse_number(budget)) %>%
  separate(plot, c("director", "cast_sentence", "plot"), extra = "merge", sep = "\\. ", fill = "right") %>%
  distinct(title, .keep_all = TRUE)

Most of the movies are since 2012.

horror_movies %>%
  count(genres, sort = TRUE)

## # A tibble: 261 x 2
##    genres                               n
##    <chr>                            <int>
##  1 Horror                            1048
##  2 Horror| Thriller                   469
##  3 Comedy| Horror                     245
##  4 Horror| Mystery| Thriller          171
##  5 Drama| Horror| Thriller            159
##  6 Drama| Horror                       72
##  7 Horror| Sci-Fi| Thriller            66
##  8 Drama| Horror| Mystery| Thriller    53
##  9 Action| Horror| Thriller            48
## 10 Horror| Mystery                     47
## # ... with 251 more rows

horror_movies %>%
  count(language, sort = TRUE)

## # A tibble: 188 x 2
##    language             n
##    <chr>            <int>
##  1 English           2407
##  2 Spanish             94
##  3 Japanese            75
##  4 <NA>                70
##  5 Hindi               37
##  6 Filipino|Tagalog    34
##  7 Thai                34
##  8 English|Spanish     30
##  9 Turkish             29
## 10 German              28
## # ... with 178 more rows
…
